{
    "en":
     {
          "invalidNameFormat" : "Invalid name format! It must be at least 3 symbols!",
          "nicknameAlreadyExists" : "This nickname already exists!",
          "notExistingNickname" : "User with this nickname doesn't exist!",
          "lockedPlayer" : "This user account is now locked!",
		  "unlockedPlayer" : "This user is now unlocked!",
          "invalidAge" : "Invalid age! You have to be at least 18 years old!",
          "invalidAgeFormat" : "Invalid age format!",
          "invalidEmailFormat" : "Invalid email format!",
          "invalidPassportIdFormat" : "Invalid passport ID format!",
          "invalidPasswordFormat" : "Invalid password format! It must be at least 4 symbols!",
          "mismatchingPasswords" : "Passwords don't match!",
          "wrongPassword" : "Wrong password!",
          "attemptsLeft" : "Attempts left- ",
		  "successfulLogin" : "You have logged in successfully!",
		  "successfulRegister" : "You are successfully registered!",
          "invalidChoice" : "Invalid choice!",
          "logOutConfirmation" : "Are you sure you want to log out(Y/N)?",
          "invalidNumber" : "Invalid number!",
          "cannotWithdrawMoney" : "Cannot withdraw this amount!",
          "cannotDepositMoney" : "Cannot deposit this amount!",
		  "cannotLockUser" : "Cannot lock this user!",
		  "cannotUnlockUser" : "Cannot unlock this user!",
          "typeWithdrawAmount" : "Type amount of money to withdraw: ",
          "typeDepositAmount" : "Type amount of money to deposit: ",
          "enterNewFirstName" : "Enter new first name: ",
          "enterNewMiddleName" : "Enter new middle name: ",
          "enterNewLastName" : "Enter new last name: ",
          "enterNewNickName" : "Enter new nickname: ",
		  "enterNewAge" : "Enter new age: ",
          "enterNewEmailAddress" : "Enter new email address: ",
          "enterNewPassportId" : "Enter new passport ID: ",
          "enterCurrentPassword" : "Enter current password: ",
          "enterNewPassword" : "Enter new password: ",
          "confirmPassword" : "Confirm password: ",
          "currentFirstName" : "Current first name: ",
          "currentMiddleName" : "Current middle name: ",
          "currentLastName" : "Current last name: ",
          "currentNickName" : "Current nickname: ",
          "currentNickname" : "Current nickname: ",
          "currentEmailAddress" : "Current email address: ",
          "currentAge" : "Current age: ",
          "currentPassportId" : "Current passport ID: ",
		  "yourMoney" : "Your money- ",
		  "placeBet" : "Please place a bet (Min. 50$): ",
		  "youHaveLost" : "Sorry, you have lost your bet!",
		  "youHaveWon" : "Congratulations! You have won- ",
		  "doYouWantToContinue" : "Do you want to continue playing(Y/N)?",
		  "winningDivision" : "Winning division: ",
		  "yourCards" : "Your cards: ",
		  "dealerCards" : "Dealer's cards: ",
		  "blackjack" : "Blackjack!"
     },
    "bg":
     {
          "invalidNameFormat" : "Невалиден формат за име! Трябва да е поне 3 символа!",
          "nicknameAlreadyExists" : "Това потребителко име вече е заето!",
          "notExistingNickname" : "Потребител с това потребителско име не съществува!",
          "lockedPlayer" : "Този потребител сега е заключен!",
		  "unlockedPlayer" : "Този потребител сега е отключен!",
          "invalidAge" : "Невалидна възраст! Трябва да сте на поне 18 години!",
          "invalidAgeFormat" : "Невалиден формат за възраст!",
          "invalidEmailFormat" : "Невалиден формат за електронна поща!",
          "invalidPassportIdFormat" : "Невалиден формат за номер на паспорт!",
          "invalidPasswordFormat" : "Невалиден формат за парола! Трябва да е поне 4 символа!",
          "mismatchingPasswords" : "Паролите не съвпадат!",
          "wrongPassword" : "Грешна парола!",
          "attemptsLeft" : "Оставащи опити- ",
		  "successfulLogin" : "Вие влязохте успешно!",
		  "successfulRegister" : "Вие бяхте успешно регистрирани!",
          "invalidChoice" : "Невалиден избор!",
          "logOutConfirmation" : "Сигурни ли сте, че искате да излезете(Y/N)?",
          "invalidNumber" : "Невалидно число!",
          "cannotWithdrawMoney" : "Не може да се изтегли тази сума!",
          "cannotDepositMoney" : "Не може да се депозира тази сума!",
		  "cannotLockUser" : "Не може да се заключи този профил!",
		  "cannotUnlockUser" : "Не може да се отключи този профил!",
          "typeWithdrawAmount" : "Напишете сума, която да изтеглите: ",
          "typeDepositAmount" : "Напишете сума, която да депозирате: ",
          "enterNewFirstName" : "Напишете ново собствено име: ",
          "enterNewMiddleName" : "Напишете ново презиме: ",
          "enterNewLastName" : "Напишете ново фамилно име: ",
		  "enterNewAge" : "Напишете нова възраст: ",
          "enterNewEmailAddress" : "Напишете нова електронна поща: ",
          "enterNewPassportId" : "Напишете нов номер на паспорт: ",
          "enterCurrentPassword" : "Напишете си паролата: ",
          "enterNewPassword" : "Напишете нова парола: ",
          "confirmPassword" : "Повторете паролата: ",
          "currentFirstName" : "Текущо собствено име: ",
          "currentMiddleName" : "Текущо презиме: ",
          "currentLastName" : "Текущо фамилно име: ",
          "currentNickname" : "Текущо потребителско име: ",
          "currentEmailAddress" : "Текуща електронна поща: ",
          "currentAge" : "Текуща възраст: ",
          "currentPassportId" : "Текущ номер на паспорт: ",
		  "yourMoney" : "Твоите пари- ",
		  "placeBet" : "Моля направете своя залог (Мин. 50$): ",
		  "youHaveLost" : "Съжаляваме, Вие изгубихте своя залог!",
		  "youHaveWon" : "Поздравления! Вие спечелихте- ",
		  "doYouWantToContinue" : "Искате ли да продължите да играете(Y/N)?",
		  "winningDivision" : "Печеливша девизия: ",
		  "yourCards" : "Вашите карти: ",
		  "dealerCards" : "Картите на дилъра: ",
		  "blackjack" : "Блекджек!"
	 }
 }