{
    "en":
    {
	    "0" : "GAME OPTIONS"
	    "1" : "1. Play by number",
	    "2" : "2. Play by colour",
		"3" : "3. Play by sector",
		"4" : "4. Change bet",
		"5" : "5. Exit"
    },
    "bg":
    {
        "0" : "ОПЦИИ НА ИГРАТА"
	    "1" : "1. Залог на число",
	    "2" : "2. Залог на цвят",
		"3" : "3. Залог на сектор",
		"4" : "4. Смяна на залог",
		"5" : "5. Изход"
    }
}