{
    "en":
    {
	    "1": "1. Enter your nickname or email: ",
	    "2": "2. Enter your password: "
    },
    "bg":
    {
        "1": "1. Въведете потребителско име: ",
	    "2": "2. Въведете парола: "
    }
}