{
    "en":
    {
       "0" : "PLAYER PROFILE SETTINGS MENU",
  	   "1" : "1. Change your first name",
	   "2" : "2. Change your middle name",
	   "3" : "3. Change your last name",
	   "4" : "4. Change your age",
	   "5" : "5. Change your nickname",
	   "6" : "6. Change your email",
	   "7" : "7. Change your passport id",
	   "8" : "8. Change your password",
	   "9" : "9. Back",
	   "10": "Please make your choice [1-9]: "
     },
     "bg":
     {
     	"0" : "НАСТРОЙКИ НА ПРОФИЛА",
  	    "1" : "1. Промяна на собствено име",
	    "2" : "2. Промяна на презиме",
	    "3" : "3. Промяна на фамилно име",
	    "4" : "4. Промяна на възраст",
		"5" : "5. Промяна на никнейма",
	    "6" : "6. Промяна на електронна поща",
	    "7" : "7. Промяна на номер на паспорт",
	    "8" : "8. Промяна на парола",
	    "9" : "9. Връщане",
	    "10": "Моля направете избора си [1-9]: "
     }
}